…
## [1] 5486

# Distributions for BNB
bs.bnb.distribution %>% arrange(-n) %>% head(400)

## # A tibble: 400 x 3
##    Seller   Buyer     n
##     <int>   <int> <int>
##  1      5 1449267  1896
##  2      5 1453490   576
##  3      5 1444334   420
##  4      5 1448854   320
##  5      5 1451661   240
##  6      5 1681712   132
##  7      5 1449374   130
##  8      5 1681590   130
##  9      5 1678750   120
## 10      5 1446470    88
## #  with 390 more rows
…
